/* s=scale*/
s=30.;
l=0.2;

Point(1)={-4.*s,0.,0.,l*s};
Point(2)={-4.*s,4.*s,0.,l*s};
Point(3)={16.*s,6.*s,0.,l*s};
Point(4)={21.*s,-12.*s,0.,l*s};
Point(5)={4.*s,-12.*s,0.,l*s};
Point(6)={4.*s,0.,0.0,l*s};
Point(7)={-15.*s,8.*s,0.,l*s};
Point(8)={-15.*s,4.*s,0.,l*s};
Point(9)={-4.*s,-4.*s,0.,l*s};
Point(15)={-4.*s,10.*s,0.,l*s};
Point(16)={8.*s,4.*s,0.,l*s};
Point(17)={8.*s,0.,0.,l*s};
Point(18)={10.*s,0.,0.,l*s};
Point(19)={10.*s,6.*s,0.,l*s};
Point(20)={-10.*s,-3.5*s,0.,l*s};
Point(21)={20.*s,2.*s,0.,l*s};

Line(1)={7,15};
Line(2)={15,2};
Line(3)={2,16};
Line(4)={16,17};
Line(5)={17,18};
Line(6)={18,19};
Line(7)={19,3}; 
Spline(8)={3,21,4};
Line(9)={4,5};
Line(10)={5,6};
Line(11)={6,1};
Line(12)={1,9};
Line(13)={7,8};
Spline(14)={8,20,9};


Line Loop(7)={1,2,3,4,5,6,7,8,9,10,11,12,-14,-13};

Plane Surface(1)={7};

Physical Surface(100)={1};
