//l=0.1;
//l=0.13;
//l=0.15;
//l=0.17;
//l=0.2;
//l=0.25;
//l=0.3;
//l=0.4;
//l=0.5;

Point(1)={0.,0.,0.,l};
Point(2)={0.,10.,0.,l};
Point(3)={10.,10.,0.,l};
Point(4)={10.,0.,0.,l};

Line(1)={1,2};
Line(2)={2,3};
Line(3)={3,4};
Line(4)={4,1};


Line Loop(5)={1,2,3,4};

Plane Surface(1)={5};

Physical Surface(100)={1};
